{
	"Obra": {
		"id": 23,
		"autores": "Méryl Mélissandre",
		"ISBN": "541811937-0",
		"titulo": "eleifend quam a odio in hac habitasse platea",
		"preco": 90.8,
		"status": 10,
		"tipo": "digital",
		"AdC": "história",
		"ano": 2001
	},
	"Estados": [
		{
			"id": 4,
			"denominacao": "bom"
		},
		{
			"id": -1,
			"denominacao": "Not Found"
		}
	]
}
