bpmn\customType\utils\PrecoFornecedoresConverter.class
bpmn\customType\utils\ProcessarPeritos.class
bpmn\customType\utils\ValidaPeritos.class
bpmn\customType\utils\ProcessarAdC.class
bpmn\customType\utils\ProcessarPesquisaPolos.class
bpmn\customType\listeners\ParecerListener.class
bpmn\customType\utils\config\TimerConfiguration.class
bpmn\customType\utils\ProcessarPesquisaFornecedores.class
bpmn\customType\type\PrecosFornecedoresFormType.class
bpmn\customType\utils\ContadorPassagensAprovaPAD.class
bpmn\customType\utils\PeritosRegistados.class
bpmn\customType\utils\config\ConfigFile.class
bpmn\customType\type\PeritoFormType.class
bpmn\customType\type\NovoPeritoProponenteFormType.class
bpmn\customType\utils\ProcessarAutores.class
bpmn\customType\utils\PeritoConverter.class
bpmn\customType\type\ObrasJaExistentesFormType.class
bpmn\customType\type\ObrasFornecedoresFormType.class
bpmn\customType\type\ObrasPolosFormType.class
bpmn\customType\type\TableFormType.class
bpmn\customType\type\NovoPeritoBibliotecarioFormType.class
bpmn\customType\utils\FornecedorInvalido.class
bpmn\customType\utils\ContarPareceres.class
bpmn\customType\utils\ProcessarPolos.class
